03 03 24 00 21 0A 5F 0A 60 00 22 00 23 00 24 00 25 00 26 00 27 08 CF 03 E8 01 28 29 2A 2B 2C 00 2D 00 2E 00 2F 00 2D 2C BD 
04 03 18 00 3F 00 40 00 41 00 42 00 43 00 44 00 45 00 46 47 48 07 D0 00 AC 00 49 60 2D 
0A 20 16 20 4E 00 29 00 00 00 00 00 03 C0 24 90 2A 90 00 00 00 00 00 07 07 AC 4C 
0A 20 2A 13 94 34 57 00 00 00 00 3C 03 00 47 FA 00 00 0C 00 00 00 04 00 00 00 00 03 C0 00 90 24 90 2A 90 00 00 00 3C 3C 0C 12 00 00 00 4D 33 
08 03 00 00 00 11 5F 85 
08 10 00 11 00 06 0C 00 02 00 00 00 4E 00 AE 00 00 00 00 72 55 
08 10 00 11 00 06 97 10 
07 03 00 00 00 11 A0 85 
07 10 00 11 00 06 0C 00 01 00 00 00 4E 00 00 00 00 00 00 FB E4 
07 10 00 11 00 06 68 10 
14 10 00 64 00 3C 78 00 FF 00 FF 00 00 00 00 00 FF 00 80 00 04 09 00 00 01 00 00 00 00 00 00 00 00 00 00 00 00 00 00 00 00 00 00 00 00 00 00 00 00 00 00 00 00 00 50 00 01 00 00 00 00 00 00 00 00 00 00 00 00 00 00 00 00 00 00 00 00 00 FF 00 00 00 14 00 14 00 A1 00 00 00 00 00 00 00 00 00 00 00 00 00 00 00 00 00 00 00 00 00 00 00 00 00 00 00 00 00 00 00 00 00 00 00 00 00 00 00 00 19 CF 
14 10 00 64 00 3C 78 00 FF 00 FF 00 00 00 00 00 FF 00 80 00 04 09 00 00 01 00 00 00 00 00 00 00 00 00 00 00 00 00 00 00 00 00 00 00 00 00 00 00 00 00 00 00 00 00 50 00 01 00 00 00 00 00 00 00 00 00 00 00 00 00 00 00 00 00 00 00 00 00 FF 00 00 00 14 00 14 00 A1 00 00 00 00 00 00 00 00 00 00 00 00 00 00 00 00 00 00 00 00 00 00 00 00 00 00 00 00 00 00 00 00 00 00 00 00 00 00 00 00 19 CF 
1E 41 20 C8 
1E 41 00 0F 00 CE 9D 
1D 41 D0 C8 
1D 41 00 00 00 3E DC 
02 03 00 00 00 01 39 84 
06 10 00 0D 00 06 0C 00 01 00 00 00 01 00 04 00 00 00 00 CA 9E 
06 10 00 0D 00 06 7F D0 
07 03 00 00 00 13 61 04 
07 03 26 00 84 85 00 85 00 00 00 00 00 00 03 00 03 00 10 00 60 00 8C 00 8C 00 00 00 00 00 00 00 00 00 00 00 01 00 00 00 00 C1 68 
07 10 00 11 00 06 0C 00 01 00 00 09 E9 00 04 00 01 00 00 5B 52 
07 10 00 11 00 06 68 10 
08 03 00 00 00 15 9C 84 
08 03 2A 00 18 85 00 85 00 00 00 00 00 00 00 00 03 00 D0 00 60 00 8C 00 8C 00 00 00 00 00 00 00 00 00 00 00 00 00 00 00 00 00 01 00 00 7C D6 
08 10 00 11 00 06 0C 00 02 00 00 09 E9 00 18 00 01 00 00 C8 DB 
08 10 00 11 00 06 97 10 
0A 20 16 20 55 55 3D 00 01 00 00 00 03 C0 24 80 27 80 0C 80 21 80 00 00 00 D0 DD 
0A 20 2A 00 00 00 00 00 00 00 00 3C 00 12 00 00 00 00 0C 55 55 3C 04 01 00 00 00 03 C0 03 80 0C 80 3C 80 3F 80 00 00 00 03 13 00 00 00 17 EF 
1E 41 20 C8 
1E 41 00 1F 00 0E 90 
1D 41 D0 C8 
1D 41 40 13 00 DA D0 
01 03 00 01 00 05 09 D4 
02 03 00 00 00 01 39 84 
14 21 00 00 00 00 08 BF 
14 21 00 00 00 00 08 BF 
14 21 00 00 00 00 08 BF 
14 21 00 00 00 00 08 BF 
02 03 00 00 00 15 36 84 
02 03 2A 00 7A 85 00 85 00 00 00 00 00 00 03 00 03 00 C0 00 6F 00 8C 00 8C BB 00 7F FF 7F FF 00 00 BB FA 7F FF 7F FF 00 00 00 01 00 00 7E 84 
02 10 00 15 00 06 0C 00 01 00 00 09 E9 00 04 00 01 00 00 54 9C 
02 10 00 15 00 06 FC 51 
03 03 00 00 00 12 25 C4 
03 03 24 00 00 85 00 85 00 00 20 00 04 00 00 00 00 00 02 00 00 09 60 00 00 00 D0 00 00 00 00 00 8C 00 8C 00 01 85 00 BB 63 
03 10 00 12 00 06 0C 00 20 00 00 09 E9 00 04 00 04 00 00 A7 5C 
03 10 00 12 00 06 EC E1 
04 03 00 00 00 0C 9A 45 
04 03 18 00 FF 00 00 00 01 00 00 00 00 00 02 00 00 00 1C 00 00 00 00 00 01 00 00 B3 95 
02 03 00 00 00 01 39 84 
04 10 00 0C 00 03 06 00 01 00 0D 00 00 B9 86 
04 10 00 0C 00 03 5E 40 
06 03 00 00 00 0D B8 85 
06 03 1A 00 76 85 00 00 01 00 00 00 00 00 04 00 00 00 00 00 00 00 8C 00 01 00 00 00 00 0E E8 
06 10 00 0D 00 06 0C 00 01 00 00 00 01 00 04 00 00 00 00 CA 9E 
06 10 00 0D 00 06 7F D0 
07 03 00 00 00 13 61 04 
07 03 26 00 84 85 00 85 00 00 00 00 00 00 03 00 03 00 10 00 60 00 8C 00 8C 00 00 00 00 00 00 00 00 00 00 00 01 00 00 00 00 C1 68 
07 10 00 11 00 06 0C 00 01 00 00 09 E9 00 04 00 01 00 00 5B 52 
07 10 00 11 00 06 68 10 
08 03 00 00 00 15 9C 84 
08 03 2A 00 18 85 00 85 00 00 00 00 00 00 00 00 03 00 D0 00 60 00 8C 00 8C 00 00 00 00 00 00 00 00 00 00 00 00 00 00 00 00 00 01 00 00 7C D6 
08 10 00 11 00 06 0C 00 02 00 00 09 E9 00 18 00 01 00 00 C8 DB 
08 10 00 11 00 06 97 10 
0A 20 16 20 55 55 3D 00 01 00 00 00 03 C0 24 80 27 80 0C 80 21 80 00 00 00 D0 DD 
0A 20 2A 00 00 00 00 00 00 00 00 3C 00 12 00 00 00 00 0C 55 55 3C 04 01 00 00 00 03 C0 03 80 0C 80 3C 80 3F 80 00 00 00 03 13 00 00 00 17 EF 
1E 41 20 C8 
1E 41 00 1F 00 0E 90 
02 03 00 00 00 01 39 84 
1D 41 D0 C8 
1D 41 40 13 00 DA D0 
01 03 00 01 00 05 09 D4 
14 21 00 00 00 00 08 BF 
14 21 00 00 00 00 08 BF 
14 21 00 00 00 00 08 BF 
14 21 00 00 00 00 08 BF 
02 03 00 00 00 15 36 84 
02 03 2A 00 7A 85 00 85 00 00 00 00 00 00 03 00 03 00 C0 00 6F 00 8C 00 8C BB 00 7F FF 7F FF 00 00 BB FA 7F FF 7F FF 00 00 00 01 00 00 7E 84 
14 21 00 00 00 00 08 BF 
14 21 00 00 00 00 08 BF 
14 21 00 E3 00 01 3E 8F 
14 21 00 E3 00 01 3E 8F 
04 10 00 0C 00 03 06 00 01 00 0D 00 00 B9 86 
06 03 00 00 00 0D B8 85 
06 03 1A 00 82 85 00 00 01 00 00 00 00 00 04 00 00 00 00 00 00 00 8C 00 01 00 00 00 00 EB BB 
06 10 00 0D 00 06 0C 00 01 00 00 00 00 00 04 00 00 00 00 0A 8E 
06 10 00 0D 00 06 7F D0 
07 03 26 00 84 85 00 85 00 00 00 00 00 00 06 00 03 00 10 00 60 00 8C 00 8C 00 00 00 00 00 00 00 00 00 00 00 01 00 00 00 00 C8 68 
08 03 00 00 00 15 9C 84 
08 03 2A 00 AE 85 00 85 00 00 00 00 00 00 00 00 03 00 D0 00 60 00 8C 00 8C 00 00 00 00 00 00 00 00 00 00 00 00 00 00 00 00 00 01 00 00 01 28 
0A 20 16 06 57 56 3E 08 01 00 00 00 03 C0 03 80 09 80 30 80 0F C0 00 00 00 C7 DD 
0A 20 16 06 57 56 3E 08 01 00 00 00 03 C0 03 80 09 80 30 80 0F C0 00 00 00 C7 DD 
1E 41 20 C8 
1E 41 00 1F 00 0E 90 
1D 41 D0 C8 
01 03 00 01 00 20 D2 15 
14 21 00 00 00 00 08 BF 
14 21 00 00 00 00 08 BF 
14 21 00 00 00 00 08 BF 
14 21 00 00 00 00 08 BF 
02 03 00 00 00 15 36 84 
02 03 2A 00 7A 85 00 85 00 00 00 00 00 00 03 00 03 00 D0 00 60 00 8C 00 8C 00 00 00 00 00 00 00 00 00 00 00 00 00 00 00 00 00 01 00 00 43 B8 
02 10 00 15 00 06 0C 00 01 00 00 0A 86 00 04 00 01 00 00 47 43 
02 10 00 15 00 06 FC 51 
03 03 00 00 00 12 25 C4 
03 03 24 00 00 0A 47 0A 53 00 01 00 06 00 00 00 00 00 03 00 04 09 FD 00 00 00 30 00 00 00 01 00 00 00 00 00 01 0A 34 A0 C0 
03 10 00 12 00 06 0C 00 01 00 00 0A 7F 00 04 00 04 00 00 87 45 
03 10 00 12 00 06 EC E1 
04 03 00 00 00 0C 9A 45 
04 03 00 00 00 0C 9A 45 
04 10 00 0C 00 03 06 00 01 00 0D 00 00 B9 86 
04 10 00 0C 00 03 06 00 01 00 0D 00 00 B9 86 
06 03 00 00 00 0D B8 85 
06 03 1A 00 82 85 00 00 01 00 00 00 00 00 04 00 00 00 00 00 00 00 8C 00 01 00 00 00 00 EB BB 
06 10 00 0D 00 06 0C 00 01 00 00 00 00 00 04 00 00 00 00 0A 8E 
06 10 00 0D 00 06 7F D0 
07 03 26 00 84 85 00 85 00 00 00 00 00 00 06 00 03 00 10 00 60 00 8C 00 8C 00 00 00 00 00 00 00 00 00 00 00 01 00 00 00 00 C8 68 
08 03 00 00 00 15 9C 84 
08 03 2A 00 AE 85 00 85 00 00 00 00 00 00 00 00 03 00 D0 00 60 00 8C 00 8C 00 00 00 00 00 00 00 00 00 00 00 00 00 00 00 00 00 01 00 00 01 28 
0A 20 16 06 57 56 3E 08 01 00 00 00 03 C0 03 80 09 80 30 80 0F C0 00 00 00 C7 DD 
0A 20 16 06 57 56 3E 08 01 00 00 00 03 C0 03 80 09 80 30 80 0F C0 00 00 00 C7 DD 
1E 41 20 C8 
1E 41 00 1F 00 0E 90 
1D 41 D0 C8 
01 03 00 01 00 20 D2 15 
1E 41 20 C8 
1E 41 00 0E 00 5E 9C 
01 03 00 01 00 19 C0 D5 
14 21 00 00 00 00 08 BF 
14 21 00 00 00 00 08 BF 
14 21 00 00 00 00 08 BF 
14 21 00 00 00 00 08 BF 
02 03 00 00 00 11 F5 85 
02 03 00 00 00 11 F5 85 
02 10 00 11 00 06 0C 00 00 00 0A 00 00 00 01 00 00 00 00 AF C1 
02 10 00 11 00 06 0C 00 00 00 0A 00 00 00 01 00 00 00 00 AF C1 
03 03 00 00 00 12 25 C4 
03 03 00 00 00 12 25 C4 
03 10 00 12 00 06 0C 00 01 00 0A 00 00 00 01 00 01 00 0A 99 69 
03 10 00 12 00 06 0C 00 01 00 0A 00 00 00 01 00 01 00 0A 99 69 
04 03 00 00 00 0C 9A 45 
04 03 00 00 00 0C 9A 45 
04 10 00 0C 00 03 06 00 01 00 0D 00 00 B9 86 
04 10 00 0C 00 03 06 00 01 00 0D 00 00 B9 86 
1E 41 20 C8 
1E 41 00 0E 00 5E 9C 
01 03 00 01 00 19 C0 D5 
14 21 00 00 00 00 08 BF 
14 21 00 00 00 00 08 BF 
14 21 00 00 00 00 08 BF 
14 21 00 00 00 00 08 BF 
02 03 00 00 00 11 F5 85 
02 03 00 00 00 11 F5 85 
02 10 00 11 00 06 0C 00 00 00 0A 00 00 00 01 00 00 00 00 AF C1 
02 10 00 11 00 06 0C 00 00 00 0A 00 00 00 01 00 00 00 00 AF C1 
03 03 00 00 00 12 25 C4 
03 03 00 00 00 12 25 C4 
03 10 00 12 00 06 0C 00 01 00 0A 00 00 00 01 00 01 00 0A 99 69 
03 10 00 12 00 06 0C 00 01 00 0A 00 00 00 01 00 01 00 0A 99 69 
04 03 00 00 00 0C 9A 45 
04 03 00 00 00 0C 9A 45 
04 10 00 0C 00 03 06 00 01 00 0D 00 00 B9 86 
04 10 00 0C 00 03 06 00 01 00 0D 00 00 B9 86 
1E 41 20 C8 
1E 41 00 0E 00 5E 9C 
01 03 00 01 00 19 C0 D5 
14 21 00 00 00 00 08 BF 
14 21 00 00 00 00 08 BF 
14 21 00 00 00 00 08 BF 
14 21 00 00 00 00 08 BF 
02 03 00 00 00 11 F5 85 
02 03 00 00 00 11 F5 85 
02 10 00 11 00 06 0C 00 00 00 0A 00 00 00 01 00 00 00 00 AF C1 
02 10 00 11 00 06 0C 00 00 00 0A 00 00 00 01 00 00 00 00 AF C1 
03 03 00 00 00 12 25 C4 
03 03 00 00 00 12 25 C4 
03 10 00 12 00 06 0C 00 01 00 0A 00 00 00 01 00 01 00 0A 99 69 
03 10 00 12 00 06 0C 00 01 00 0A 00 00 00 01 00 01 00 0A 99 69 
04 03 00 00 00 0C 9A 45 
04 03 00 00 00 0C 9A 45 
04 10 00 0C 00 03 06 00 01 00 0D 00 00 B9 86 
04 10 00 0C 00 03 06 00 01 00 0D 00 00 B9 86 
1E 41 20 C8 
1E 41 00 0E 00 5E 9C 
01 03 00 01 00 19 C0 D5 
14 21 00 00 00 00 08 BF 
14 21 00 00 00 00 08 BF 
14 21 00 00 00 00 08 BF 
14 21 00 00 00 00 08 BF 
02 03 00 00 00 11 F5 85 
02 03 00 00 00 11 F5 85 
02 10 00 11 00 06 0C 00 00 00 0A 00 00 00 01 00 00 00 00 AF C1 
02 10 00 11 00 06 0C 00 00 00 0A 00 00 00 01 00 00 00 00 AF C1 
03 03 00 00 00 12 25 C4 
03 03 00 00 00 12 25 C4 
03 10 00 12 00 06 0C 00 01 00 0A 00 00 00 01 00 01 00 0A 99 69 
03 10 00 12 00 06 0C 00 01 00 0A 00 00 00 01 00 01 00 0A 99 69 
04 03 00 00 00 0C 9A 45 
04 03 00 00 00 0C 9A 45 
04 10 00 0C 00 03 06 00 01 00 0D 00 00 B9 86 
04 10 00 0C 00 03 06 00 01 00 0D 00 00 B9 86 
1E 41 20 C8 
1E 41 00 0E 00 5E 9C 
01 03 00 01 00 19 C0 D5 
14 21 00 00 00 00 08 BF 
14 21 00 00 00 00 08 BF 
14 21 00 00 00 00 08 BF 
14 21 00 00 00 00 08 BF 
02 03 00 00 00 11 F5 85 
02 03 00 00 00 11 F5 85 
02 10 00 11 00 06 0C 00 00 00 0A 00 00 00 01 00 00 00 00 AF C1 
02 10 00 11 00 06 0C 00 00 00 0A 00 00 00 01 00 00 00 00 AF C1 
03 03 00 00 00 12 25 C4 
03 03 00 00 00 12 25 C4 
03 10 00 12 00 06 0C 00 01 00 0A 00 00 00 01 00 01 00 0A 99 69 
03 10 00 12 00 06 0C 00 01 00 0A 00 00 00 01 00 01 00 0A 99 69 
04 03 00 00 00 0C 9A 45 
04 03 00 00 00 0C 9A 45 
04 10 00 0C 00 03 06 00 01 00 0D 00 00 B9 86 
04 10 00 0C 00 03 06 00 01 00 0D 00 00 B9 86 
1E 41 20 C8 
1E 41 00 0E 00 5E 9C 
01 03 00 01 00 19 C0 D5 
14 21 00 00 00 00 08 BF 
14 21 00 00 00 00 08 BF 
14 21 00 00 00 00 08 BF 
14 21 00 00 00 00 08 BF 
02 03 00 00 00 11 F5 85 
02 03 00 00 00 11 F5 85 
02 10 00 11 00 06 0C 00 00 00 0A 00 00 00 01 00 00 00 00 AF C1 
02 10 00 11 00 06 0C 00 00 00 0A 00 00 00 01 00 00 00 00 AF C1 
03 03 00 00 00 12 25 C4 
03 03 00 00 00 12 25 C4 
03 10 00 12 00 06 0C 00 01 00 0A 00 00 00 01 00 01 00 0A 99 69 
03 10 00 12 00 06 0C 00 01 00 0A 00 00 00 01 00 01 00 0A 99 69 
04 03 00 00 00 0C 9A 45 
04 03 00 00 00 0C 9A 45 
04 10 00 0C 00 03 06 00 01 00 0D 00 00 B9 86 
04 10 00 0C 00 03 06 00 01 00 0D 00 00 B9 86 
